                          M       MMM .MM              .                    
                    MMM.   .      M     .M      MMMMMMM                     
                    .M  M MM     .M     .M      .MM                         
        . .M        .MMMMM M.      MMMMM.         M  MM .                   
       M.MMM M        .        MMMMMMMMMMMMM    .     .          .M         
      .MM M .M..         MMMMMMMMMMMMMMMMMMMMMMMMM          M..M..M         
           .M         MMMMMM.      MMMMM       MMMMMM .     .. ..MM.        
                   MMMMM.         MMMMMMM       . .MMMMM    MMMMMM M        
                .MMMM            .MMM MMM             MMMM.                 
               MMMM             .MMM.  MMM              MMMM                
   .MM       MMMM               MMMM   MMMM              MMMM       MMM     
 MM    MM   MMMM               MMMM.   .MMM.               MMM    M..   MM  
MM     .M  MMMM.               MMM      .MMM               .MMM. MM     .M. 
.MM    MM .MMMMMMMMMMMMMMMMMMMMMMMMMMMMMMMMMMMMMMMMMMMMMMMMMMMMM  M    .MM  
  . M..   MMMMMMMM           MMMM        .MMM            MMMMMMMM  . M...   
          MMM .MMMMMM.      .MMM.          MMM        MMMMM.  MMM           
         MMMM     MMMMMM   .MMM.          .MMMM    MMMMM .   .MMM.          
         MMM       . MMMMMMMMMM             MMMMMMMMM         MMMM          
   .  M  MMMM          .MMMMMM.             .MMMMM           .MMM  .  .MMM. 
  .M     .MMM             MMMMMMM         MMMMMMM            .MMM   MMMMMMM 
.MM...MM  MMM           .MMMM MMMMMM  .MMMMM..MMMM            MMM   MMMMMMM 
.MMMMM .   MMM.        .MMMM     MMMMMMMM.     MMM.         .MMM.     .  .  
           MMMM        MMMM.     MMMMMMMMM     MMMM.        MMMM            
         M  MMMM.     .MMM.   MMMMMM  .MMMMMM   MMMM       MMMM             
    ..  ...  .MMM.    MMMM.MMMMMM         MMMMMM MMMM     MMM . .  ...      
    M  M MM    MMMM  MMMMMMMMM.            . MMMMMMMM.  MMMM   M. M  M      
    MMMMM.M     .MMMMMMMMMM                     MMMMMMMMMM     .. M.M .     
                  .MMMMM..                       .MMMMMM.       .MMM  M.    
              MMMMM   MMMMMM                  MMMMMMM . MMMMMM              
            MM.   .MM   .MMMMMMMMMMMMMMMMMMMMMMMMM     M..  ..M             
            M     .MM         .MMMMMMMMMMMM      M    .M.    .M.            
             MM   MM       MMM            .MM M .M     MMM..MMM             
                .       MMMMMMM             .   .M       ....               
                        M. MMM..           .MMMMM M.                        
                          M..  .             .                              